RTL/CPUs/RISCVpipelinedRV32IMF/.Xil/Vivado-27900-QianPC/hw_ila_data_1/zip_work/waveform.vcd
$date
        2025-Jul-13 13:27:31
$end
$version
        Vivado v2024.2 (64-bit)
$end
$timescale
        1ps
$end
$scope module dut $end
$var reg 32 " cpu/inst [31:0] $end
$var reg 32 B cpu/pc [31:0] $end
$var reg 1 b cpu/clk $end
$var reg 1 c cpu/SI_Reset_N $end
$var reg 1 d cpu/lock $end
$var reg 27 e cpu/counter [26:0] $end
$var reg 16 "" cpu/IO_Switch [15:0] $end
$var reg 16 2" cpu/IO_LED [15:0] $end
$var reg 1 B" cpu/dbg_resetn_cpu $end
$var reg 1 C" cpu/dbg_imem_we $end
$var reg 32 D" cpu/dbg_imem_addr [31:0] $end
$var reg 32 d" cpu/dbg_imem_din [31:0] $end
$var reg 1 &# cpu/dbg_dmem_ce $end
$var reg 1 '# cpu/wpcir $end
$var reg 32 (# cpu/dbg_dmem_addr [31:0] $end
$var reg 32 H# cpu/dbg_dmem_din [31:0] $end
$var reg 1 h# cpu/dbg_halt_cpu $end
$var reg 8 i# cpu/IO_7SEGEN_N [7:0] $end
$var reg 7 q# cpu/IO_7SEG_N [6:0] $end
$var reg 32 x# cpu/npc [31:0] $end
$var reg 1 :$ _TRIGGER $end
$var reg 1 ;$ _WINDOW $end
$var reg 1 <$ _GAP $end
$upscope $end
$enddefinitions $end
#0
$dumpvars
b1011010001010000011 "
b11100 B
0b
1c
1d
b101111000000000101100110 e
b0 ""
b0 2"
1B"
0C"
b0 D"
b0 d"
0&#
1'#
b0 (#
b0 H#
0h#
b11101111 i#
b1 q#
b100000 x#
0:$
1;$
0<$
$end
#1
b10101010010000000100011 "
b100000 B
1b
b101111000000000101100111 e
0'#
b100100 x#
#2
0b
#3
1b
b101111000000000101101000 e
1'#
#4
0b
#5
b10101010010100000100011 "
b100100 B
1b
b101111000000000101101001 e
b101000 x#
#6
0b
#7
b11111111010111111111000001101111 "
b101000 B
1b
b101111000000000101101010 e
b11000 x#
#8
0b
#9
b0 "
b11000 B
1b
b101111000000000101101011 e
b11100 x#
#10
0b
#11
b1011010001010000011 "
b11100 B
1b
b101111000000000101101100 e
b100000 x#
#12
0b
#13
b10101010010000000100011 "
b100000 B
1b
b101111000000000101101101 e
0'#
b100100 x#
#14
0b
#15
1b
b101111000000000101101110 e
1'#
#16
0b
#17
b10101010010100000100011 "
b100100 B
1b
b101111000000000101101111 e
b101000 x#
#18
0b
#19
b11111111010111111111000001101111 "
b101000 B
1b
b101111000000000101110000 e
b11000 x#
#20
0b
#21
b0 "
b11000 B
1b
b101111000000000101110001 e
b11100 x#
#22
0b
#23
b1011010001010000011 "
b11100 B
1b
b101111000000000101110010 e
b100000 x#
#24
0b
#25
b10101010010000000100011 "
b100000 B
1b
b101111000000000101110011 e
0'#
b100100 x#
#26
0b
#27
1b
b101111000000000101110100 e
1'#
#28
0b
#29
b10101010010100000100011 "
b100100 B
1b
b101111000000000101110101 e
b101000 x#
#30
0b
#31
b11111111010111111111000001101111 "
b101000 B
1b
b101111000000000101110110 e
b11000 x#
#32
0b
#33
b0 "
b11000 B
1b
b101111000000000101110111 e
b11100 x#
#34
0b
#35
b1011010001010000011 "
b11100 B
1b
b101111000000000101111000 e
b100000 x#
#36
0b
#37
b10101010010000000100011 "
b100000 B
1b
b101111000000000101111001 e
0'#
b100100 x#
#38
0b
#39
1b
b101111000000000101111010 e
1'#
#40
0b
#41
b10101010010100000100011 "
b100100 B
1b
b101111000000000101111011 e
b101000 x#
#42
0b
#43
b11111111010111111111000001101111 "
b101000 B
1b
b101111000000000101111100 e
b11000 x#
#44
0b
#45
b0 "
b11000 B
1b
b101111000000000101111101 e
b11100 x#
#46
0b
#47
b1011010001010000011 "
b11100 B
1b
b101111000000000101111110 e
b100000 x#
#48
0b
#49
b10101010010000000100011 "
b100000 B
1b
b101111000000000101111111 e
0'#
b100100 x#
#50
0b
#51
1b
b101111000000000110000000 e
1'#
#52
0b
#53
b10101010010100000100011 "
b100100 B
1b
b101111000000000110000001 e
b101000 x#
#54
0b
#55
b11111111010111111111000001101111 "
b101000 B
1b
b101111000000000110000010 e
b11000 x#
#56
0b
#57
b0 "
b11000 B
1b
b101111000000000110000011 e
b11100 x#
#58
0b
#59
b1011010001010000011 "
b11100 B
1b
b101111000000000110000100 e
b100000 x#
#60
0b
#61
b10101010010000000100011 "
b100000 B
1b
b101111000000000110000101 e
0'#
b100100 x#
#62
0b
#63
1b
b101111000000000110000110 e
1'#
#64
0b
#65
b10101010010100000100011 "
b100100 B
1b
b101111000000000110000111 e
b101000 x#
#66
0b
#67
b11111111010111111111000001101111 "
b101000 B
1b
b101111000000000110001000 e
b11000 x#
#68
0b
#69
b0 "
b11000 B
1b
b101111000000000110001001 e
b11100 x#
#70
0b
#71
b1011010001010000011 "
b11100 B
1b
b101111000000000110001010 e
b100000 x#
#72
0b
#73
b10101010010000000100011 "
b100000 B
1b
b101111000000000110001011 e
0'#
b100100 x#
#74
0b
#75
1b
b101111000000000110001100 e
1'#
#76
0b
#77
b10101010010100000100011 "
b100100 B
1b
b101111000000000110001101 e
b101000 x#
#78
0b
#79
b11111111010111111111000001101111 "
b101000 B
1b
b101111000000000110001110 e
b11000 x#
#80
0b
#81
b0 "
b11000 B
1b
b101111000000000110001111 e
b11100 x#
#82
0b
#83
b1011010001010000011 "
b11100 B
1b
b101111000000000110010000 e
b100000 x#
#84
0b
#85
b10101010010000000100011 "
b100000 B
1b
b101111000000000110010001 e
0'#
b100100 x#
#86
0b
#87
1b
b101111000000000110010010 e
1'#
#88
0b
#89
b10101010010100000100011 "
b100100 B
1b
b101111000000000110010011 e
b101000 x#
#90
0b
#91
b11111111010111111111000001101111 "
b101000 B
1b
b101111000000000110010100 e
b11000 x#
#92
0b
#93
b0 "
b11000 B
1b
b101111000000000110010101 e
b11100 x#
#94
0b
#95
b1011010001010000011 "
b11100 B
1b
b101111000000000110010110 e
b100000 x#
#96
0b
#97
b10101010010000000100011 "
b100000 B
1b
b101111000000000110010111 e
0'#
b100100 x#
#98
0b
#99
1b
b101111000000000110011000 e
1'#
#100
0b
#101
b10101010010100000100011 "
b100100 B
1b
b101111000000000110011001 e
b101000 x#
#102
0b
#103
b11111111010111111111000001101111 "
b101000 B
1b
b101111000000000110011010 e
b11000 x#
#104
0b
#105
b0 "
b11000 B
1b
b101111000000000110011011 e
b11100 x#
#106
0b
#107
b1011010001010000011 "
b11100 B
1b
b101111000000000110011100 e
b100000 x#
#108
0b
#109
b10101010010000000100011 "
b100000 B
1b
b101111000000000110011101 e
0'#
b100100 x#
#110
0b
#111
1b
b101111000000000110011110 e
1'#
#112
0b
#113
b10101010010100000100011 "
b100100 B
1b
b101111000000000110011111 e
b101000 x#
#114
0b
#115
b11111111010111111111000001101111 "
b101000 B
1b
b101111000000000110100000 e
b11000 x#
#116
0b
#117
b0 "
b11000 B
1b
b101111000000000110100001 e
b11100 x#
#118
0b
#119
b1011010001010000011 "
b11100 B
1b
b101111000000000110100010 e
b100000 x#
#120
0b
#121
b10101010010000000100011 "
b100000 B
1b
b101111000000000110100011 e
0'#
b100100 x#
#122
0b
#123
1b
b101111000000000110100100 e
1'#
#124
0b
#125
b10101010010100000100011 "
b100100 B
1b
b101111000000000110100101 e
b101000 x#
#126
0b
#127
b11111111010111111111000001101111 "
b101000 B
1b
b101111000000000110100110 e
b11000 x#
#128
0b
#129
b0 "
b11000 B
1b
b101111000000000110100111 e
b11100 x#
#130
0b
#131
b1011010001010000011 "
b11100 B
1b
b101111000000000110101000 e
b100000 x#
#132
0b
#133
b10101010010000000100011 "
b100000 B
1b
b101111000000000110101001 e
0'#
b100100 x#
#134
0b
#135
1b
b101111000000000110101010 e
1'#
#136
0b
#137
b10101010010100000100011 "
b100100 B
1b
b101111000000000110101011 e
b101000 x#
#138
0b
#139
b11111111010111111111000001101111 "
b101000 B
1b
b101111000000000110101100 e
b11000 x#
#140
0b
#141
b0 "
b11000 B
1b
b101111000000000110101101 e
b11100 x#
#142
0b
#143
b1011010001010000011 "
b11100 B
1b
b101111000000000110101110 e
b100000 x#
#144
0b
#145
b10101010010000000100011 "
b100000 B
1b
b101111000000000110101111 e
0'#
b100100 x#
#146
0b
#147
1b
b101111000000000110110000 e
1'#
#148
0b
#149
b10101010010100000100011 "
b100100 B
1b
b101111000000000110110001 e
b101000 x#
#150
0b
#151
b11111111010111111111000001101111 "
b101000 B
1b
b101111000000000110110010 e
b11000 x#
#152
0b
#153
b0 "
b11000 B
1b
b101111000000000110110011 e
b11100 x#
#154
0b
#155
b1011010001010000011 "
b11100 B
1b
b101111000000000110110100 e
b100000 x#
#156
0b
#157
b10101010010000000100011 "
b100000 B
1b
b101111000000000110110101 e
0'#
b100100 x#
#158
0b
#159
1b
b101111000000000110110110 e
1'#
#160
0b
#161
b10101010010100000100011 "
b100100 B
1b
b101111000000000110110111 e
b101000 x#
#162
0b
#163
b11111111010111111111000001101111 "
b101000 B
1b
b101111000000000110111000 e
b11000 x#
#164
0b
#165
b0 "
b11000 B
1b
b101111000000000110111001 e
b11100 x#
#166
0b
#167
b1011010001010000011 "
b11100 B
1b
b101111000000000110111010 e
b100000 x#
#168
0b
#169
b10101010010000000100011 "
b100000 B
1b
b101111000000000110111011 e
0'#
b100100 x#
#170
0b
#171
1b
b101111000000000110111100 e
1'#
#172
0b
#173
b10101010010100000100011 "
b100100 B
1b
b101111000000000110111101 e
b101000 x#
#174
0b
#175
b11111111010111111111000001101111 "
b101000 B
1b
b101111000000000110111110 e
b11000 x#
#176
0b
#177
b0 "
b11000 B
1b
b101111000000000110111111 e
b11100 x#
#178
0b
#179
b1011010001010000011 "
b11100 B
1b
b101111000000000111000000 e
b100000 x#
#180
0b
#181
b10101010010000000100011 "
b100000 B
1b
b101111000000000111000001 e
0'#
b100100 x#
#182
0b
#183
1b
b101111000000000111000010 e
1'#
#184
0b
#185
b10101010010100000100011 "
b100100 B
1b
b101111000000000111000011 e
b101000 x#
#186
0b
#187
b11111111010111111111000001101111 "
b101000 B
1b
b101111000000000111000100 e
b11000 x#
#188
0b
#189
b0 "
b11000 B
1b
b101111000000000111000101 e
b11100 x#
#190
0b
#191
b1011010001010000011 "
b11100 B
1b
b101111000000000111000110 e
b100000 x#
#192
0b
#193
b10101010010000000100011 "
b100000 B
1b
b101111000000000111000111 e
0'#
b100100 x#
#194
0b
#195
1b
b101111000000000111001000 e
1'#
#196
0b
#197
b10101010010100000100011 "
b100100 B
1b
b101111000000000111001001 e
b101000 x#
#198
0b
#199
b11111111010111111111000001101111 "
b101000 B
1b
b101111000000000111001010 e
b11000 x#
#200
0b
#201
b0 "
b11000 B
1b
b101111000000000111001011 e
b11100 x#
#202
0b
#203
b1011010001010000011 "
b11100 B
1b
b101111000000000111001100 e
b100000 x#
#204
0b
#205
b10101010010000000100011 "
b100000 B
1b
b101111000000000111001101 e
0'#
b100100 x#
#206
0b
#207
1b
b101111000000000111001110 e
1'#
#208
0b
#209
b10101010010100000100011 "
b100100 B
1b
b101111000000000111001111 e
b101000 x#
#210
0b
#211
b11111111010111111111000001101111 "
b101000 B
1b
b101111000000000111010000 e
b11000 x#
#212
0b
#213
b0 "
b11000 B
1b
b101111000000000111010001 e
b11100 x#
#214
0b
#215
b1011010001010000011 "
b11100 B
1b
b101111000000000111010010 e
b100000 x#
#216
0b
#217
b10101010010000000100011 "
b100000 B
1b
b101111000000000111010011 e
0'#
b100100 x#
#218
0b
#219
1b
b101111000000000111010100 e
1'#
#220
0b
#221
b10101010010100000100011 "
b100100 B
1b
b101111000000000111010101 e
b101000 x#
#222
0b
#223
b11111111010111111111000001101111 "
b101000 B
1b
b101111000000000111010110 e
b11000 x#
#224
0b
#225
b0 "
b11000 B
1b
b101111000000000111010111 e
b11100 x#
#226
0b
#227
b1011010001010000011 "
b11100 B
1b
b101111000000000111011000 e
b100000 x#
#228
0b
#229
b10101010010000000100011 "
b100000 B
1b
b101111000000000111011001 e
0'#
b100100 x#
#230
0b
#231
1b
b101111000000000111011010 e
1'#
#232
0b
#233
b10101010010100000100011 "
b100100 B
1b
b101111000000000111011011 e
b101000 x#
#234
0b
#235
b11111111010111111111000001101111 "
b101000 B
1b
b101111000000000111011100 e
b11000 x#
#236
0b
#237
b0 "
b11000 B
1b
b101111000000000111011101 e
b11100 x#
#238
0b
#239
b1011010001010000011 "
b11100 B
1b
b101111000000000111011110 e
b100000 x#
#240
0b
#241
b10101010010000000100011 "
b100000 B
1b
b101111000000000111011111 e
0'#
b100100 x#
#242
0b
#243
1b
b101111000000000111100000 e
1'#
#244
0b
#245
b10101010010100000100011 "
b100100 B
1b
b101111000000000111100001 e
b101000 x#
#246
0b
#247
b11111111010111111111000001101111 "
b101000 B
1b
b101111000000000111100010 e
b11000 x#
#248
0b
#249
b0 "
b11000 B
1b
b101111000000000111100011 e
b11100 x#
#250
0b
#251
b1011010001010000011 "
b11100 B
1b
b101111000000000111100100 e
b100000 x#
#252
0b
#253
b10101010010000000100011 "
b100000 B
1b
b101111000000000111100101 e
0'#
b100100 x#
#254
0b
#255
1b
b101111000000000111100110 e
1'#
#256
0b
#257
b10101010010100000100011 "
b100100 B
1b
b101111000000000111100111 e
b101000 x#
#258
0b
#259
b11111111010111111111000001101111 "
b101000 B
1b
b101111000000000111101000 e
b11000 x#
#260
0b
#261
b0 "
b11000 B
1b
b101111000000000111101001 e
b11100 x#
#262
0b
#263
b1011010001010000011 "
b11100 B
1b
b101111000000000111101010 e
b100000 x#
#264
0b
#265
b10101010010000000100011 "
b100000 B
1b
b101111000000000111101011 e
0'#
b100100 x#
#266
0b
#267
1b
b101111000000000111101100 e
1'#
#268
0b
#269
b10101010010100000100011 "
b100100 B
1b
b101111000000000111101101 e
b101000 x#
#270
0b
#271
b11111111010111111111000001101111 "
b101000 B
1b
b101111000000000111101110 e
b11000 x#
#272
0b
#273
b0 "
b11000 B
1b
b101111000000000111101111 e
b11100 x#
#274
0b
#275
b1011010001010000011 "
b11100 B
1b
b101111000000000111110000 e
b100000 x#
#276
0b
#277
b10101010010000000100011 "
b100000 B
1b
b101111000000000111110001 e
0'#
b100100 x#
#278
0b
#279
1b
b101111000000000111110010 e
1'#
#280
0b
#281
b10101010010100000100011 "
b100100 B
1b
b101111000000000111110011 e
b101000 x#
#282
0b
#283
b11111111010111111111000001101111 "
b101000 B
1b
b101111000000000111110100 e
b11000 x#
#284
0b
#285
b0 "
b11000 B
1b
b101111000000000111110101 e
b11100 x#
#286
0b
#287
b1011010001010000011 "
b11100 B
1b
b101111000000000111110110 e
b100000 x#
#288
0b
#289
b10101010010000000100011 "
b100000 B
1b
b101111000000000111110111 e
0'#
b100100 x#
#290
0b
#291
1b
b101111000000000111111000 e
1'#
#292
0b
#293
b10101010010100000100011 "
b100100 B
1b
b101111000000000111111001 e
b101000 x#
#294
0b
#295
b11111111010111111111000001101111 "
b101000 B
1b
b101111000000000111111010 e
b11000 x#
#296
0b
#297
b0 "
b11000 B
1b
b101111000000000111111011 e
b11100 x#
#298
0b
#299
b1011010001010000011 "
b11100 B
1b
b101111000000000111111100 e
b100000 x#
#300
0b
#301
b10101010010000000100011 "
b100000 B
1b
b101111000000000111111101 e
0'#
b100100 x#
#302
0b
#303
1b
b101111000000000111111110 e
1'#
#304
0b
#305
b10101010010100000100011 "
b100100 B
1b
b101111000000000111111111 e
b101000 x#
#306
0b
#307
b11111111010111111111000001101111 "
b101000 B
1b
b101111000000001000000000 e
b11000 x#
#308
0b
#309
b0 "
b11000 B
1b
b101111000000001000000001 e
b11100 x#
#310
0b
#311
b1011010001010000011 "
b11100 B
1b
b101111000000001000000010 e
b100000 x#
#312
0b
#313
b10101010010000000100011 "
b100000 B
1b
b101111000000001000000011 e
0'#
b100100 x#
#314
0b
#315
1b
b101111000000001000000100 e
1'#
#316
0b
#317
b10101010010100000100011 "
b100100 B
1b
b101111000000001000000101 e
b101000 x#
#318
0b
#319
b11111111010111111111000001101111 "
b101000 B
1b
b101111000000001000000110 e
b11000 x#
#320
0b
#321
b0 "
b11000 B
1b
b101111000000001000000111 e
b11100 x#
#322
0b
#323
b1011010001010000011 "
b11100 B
1b
b101111000000001000001000 e
b100000 x#
#324
0b
#325
b10101010010000000100011 "
b100000 B
1b
b101111000000001000001001 e
0'#
b100100 x#
#326
0b
#327
1b
b101111000000001000001010 e
1'#
#328
0b
#329
b10101010010100000100011 "
b100100 B
1b
b101111000000001000001011 e
b101000 x#
#330
0b
#331
b11111111010111111111000001101111 "
b101000 B
1b
b101111000000001000001100 e
b11000 x#
#332
0b
#333
b0 "
b11000 B
1b
b101111000000001000001101 e
b11100 x#
#334
0b
#335
b1011010001010000011 "
b11100 B
1b
b101111000000001000001110 e
b100000 x#
#336
0b
#337
b10101010010000000100011 "
b100000 B
1b
b101111000000001000001111 e
0'#
b100100 x#
#338
0b
#339
1b
b101111000000001000010000 e
1'#
#340
0b
#341
b10101010010100000100011 "
b100100 B
1b
b101111000000001000010001 e
b101000 x#
#342
0b
#343
b11111111010111111111000001101111 "
b101000 B
1b
b101111000000001000010010 e
b11000 x#
#344
0b
#345
b0 "
b11000 B
1b
b101111000000001000010011 e
b11100 x#
#346
0b
#347
b1011010001010000011 "
b11100 B
1b
b101111000000001000010100 e
b100000 x#
#348
0b
#349
b10101010010000000100011 "
b100000 B
1b
b101111000000001000010101 e
0'#
b100100 x#
#350
0b
#351
1b
b101111000000001000010110 e
1'#
#352
0b
#353
b10101010010100000100011 "
b100100 B
1b
b101111000000001000010111 e
b101000 x#
#354
0b
#355
b11111111010111111111000001101111 "
b101000 B
1b
b101111000000001000011000 e
b11000 x#
#356
0b
#357
b0 "
b11000 B
1b
b101111000000001000011001 e
b11100 x#
#358
0b
#359
b1011010001010000011 "
b11100 B
1b
b101111000000001000011010 e
b100000 x#
#360
0b
#361
b10101010010000000100011 "
b100000 B
1b
b101111000000001000011011 e
0'#
b100100 x#
#362
0b
#363
1b
b101111000000001000011100 e
1'#
#364
0b
#365
b10101010010100000100011 "
b100100 B
1b
b101111000000001000011101 e
b101000 x#
#366
0b
#367
b11111111010111111111000001101111 "
b101000 B
1b
b101111000000001000011110 e
b11000 x#
#368
0b
#369
b0 "
b11000 B
1b
b101111000000001000011111 e
b11100 x#
#370
0b
#371
b1011010001010000011 "
b11100 B
1b
b101111000000001000100000 e
b100000 x#
#372
0b
#373
b10101010010000000100011 "
b100000 B
1b
b101111000000001000100001 e
0'#
b100100 x#
#374
0b
#375
1b
b101111000000001000100010 e
1'#
#376
0b
#377
b10101010010100000100011 "
b100100 B
1b
b101111000000001000100011 e
b101000 x#
#378
0b
#379
b11111111010111111111000001101111 "
b101000 B
1b
b101111000000001000100100 e
b11000 x#
#380
0b
#381
b0 "
b11000 B
1b
b101111000000001000100101 e
b11100 x#
#382
0b
#383
b1011010001010000011 "
b11100 B
1b
b101111000000001000100110 e
b100000 x#
#384
0b
#385
b10101010010000000100011 "
b100000 B
1b
b101111000000001000100111 e
0'#
b100100 x#
#386
0b
#387
1b
b101111000000001000101000 e
1'#
#388
0b
#389
b10101010010100000100011 "
b100100 B
1b
b101111000000001000101001 e
b101000 x#
#390
0b
#391
b11111111010111111111000001101111 "
b101000 B
1b
b101111000000001000101010 e
b11000 x#
#392
0b
#393
b0 "
b11000 B
1b
b101111000000001000101011 e
b11100 x#
#394
0b
#395
b1011010001010000011 "
b11100 B
1b
b101111000000001000101100 e
b100000 x#
#396
0b
#397
b10101010010000000100011 "
b100000 B
1b
b101111000000001000101101 e
0'#
b100100 x#
#398
0b
#399
1b
b101111000000001000101110 e
1'#
#400
0b
#401
b10101010010100000100011 "
b100100 B
1b
b101111000000001000101111 e
b101000 x#
#402
0b
#403
b11111111010111111111000001101111 "
b101000 B
1b
b101111000000001000110000 e
b11000 x#
#404
0b
#405
b0 "
b11000 B
1b
b101111000000001000110001 e
b11100 x#
#406
0b
#407
b1011010001010000011 "
b11100 B
1b
b101111000000001000110010 e
b100000 x#
#408
0b
#409
b10101010010000000100011 "
b100000 B
1b
b101111000000001000110011 e
0'#
b100100 x#
#410
0b
#411
1b
b101111000000001000110100 e
1'#
#412
0b
#413
b10101010010100000100011 "
b100100 B
1b
b101111000000001000110101 e
b101000 x#
#414
0b
#415
b11111111010111111111000001101111 "
b101000 B
1b
b101111000000001000110110 e
b11000 x#
#416
0b
#417
b0 "
b11000 B
1b
b101111000000001000110111 e
b11100 x#
#418
0b
#419
b1011010001010000011 "
b11100 B
1b
b101111000000001000111000 e
b100000 x#
#420
0b
#421
b10101010010000000100011 "
b100000 B
1b
b101111000000001000111001 e
0'#
b100100 x#
#422
0b
#423
1b
b101111000000001000111010 e
1'#
#424
0b
#425
b10101010010100000100011 "
b100100 B
1b
b101111000000001000111011 e
b101000 x#
#426
0b
#427
b11111111010111111111000001101111 "
b101000 B
1b
b101111000000001000111100 e
b11000 x#
#428
0b
#429
b0 "
b11000 B
1b
b101111000000001000111101 e
b11100 x#
#430
0b
#431
b1011010001010000011 "
b11100 B
1b
b101111000000001000111110 e
b100000 x#
#432
0b
#433
b10101010010000000100011 "
b100000 B
1b
b101111000000001000111111 e
0'#
b100100 x#
#434
0b
#435
1b
b101111000000001001000000 e
1'#
#436
0b
#437
b10101010010100000100011 "
b100100 B
1b
b101111000000001001000001 e
b101000 x#
#438
0b
#439
b11111111010111111111000001101111 "
b101000 B
1b
b101111000000001001000010 e
b11000 x#
#440
0b
#441
b0 "
b11000 B
1b
b101111000000001001000011 e
b11100 x#
#442
0b
#443
b1011010001010000011 "
b11100 B
1b
b101111000000001001000100 e
b100000 x#
#444
0b
#445
b10101010010000000100011 "
b100000 B
1b
b101111000000001001000101 e
0'#
b100100 x#
#446
0b
#447
1b
b101111000000001001000110 e
1'#
#448
0b
#449
b10101010010100000100011 "
b100100 B
1b
b101111000000001001000111 e
b101000 x#
#450
0b
#451
b11111111010111111111000001101111 "
b101000 B
1b
b101111000000001001001000 e
b11000 x#
#452
0b
#453
b0 "
b11000 B
1b
b101111000000001001001001 e
b11100 x#
#454
0b
#455
b1011010001010000011 "
b11100 B
1b
b101111000000001001001010 e
b100000 x#
#456
0b
#457
b10101010010000000100011 "
b100000 B
1b
b101111000000001001001011 e
0'#
b100100 x#
#458
0b
#459
1b
b101111000000001001001100 e
1'#
#460
0b
#461
b10101010010100000100011 "
b100100 B
1b
b101111000000001001001101 e
b101000 x#
#462
0b
#463
b11111111010111111111000001101111 "
b101000 B
1b
b101111000000001001001110 e
b11000 x#
#464
0b
#465
b0 "
b11000 B
1b
b101111000000001001001111 e
b11100 x#
#466
0b
#467
b1011010001010000011 "
b11100 B
1b
b101111000000001001010000 e
b100000 x#
#468
0b
#469
b10101010010000000100011 "
b100000 B
1b
b101111000000001001010001 e
0'#
b100100 x#
#470
0b
#471
1b
b101111000000001001010010 e
1'#
#472
0b
#473
b10101010010100000100011 "
b100100 B
1b
b101111000000001001010011 e
b101000 x#
#474
0b
#475
b11111111010111111111000001101111 "
b101000 B
1b
b101111000000001001010100 e
b11000 x#
#476
0b
#477
b0 "
b11000 B
1b
b101111000000001001010101 e
b11100 x#
#478
0b
#479
b1011010001010000011 "
b11100 B
1b
b101111000000001001010110 e
b100000 x#
#480
0b
#481
b10101010010000000100011 "
b100000 B
1b
b101111000000001001010111 e
0'#
b100100 x#
#482
0b
#483
1b
b101111000000001001011000 e
1'#
#484
0b
#485
b10101010010100000100011 "
b100100 B
1b
b101111000000001001011001 e
b101000 x#
#486
0b
#487
b11111111010111111111000001101111 "
b101000 B
1b
b101111000000001001011010 e
b11000 x#
#488
0b
#489
b0 "
b11000 B
1b
b101111000000001001011011 e
b11100 x#
#490
0b
#491
b1011010001010000011 "
b11100 B
1b
b101111000000001001011100 e
b100000 x#
#492
0b
#493
b10101010010000000100011 "
b100000 B
1b
b101111000000001001011101 e
0'#
b100100 x#
#494
0b
#495
1b
b101111000000001001011110 e
1'#
#496
0b
#497
b10101010010100000100011 "
b100100 B
1b
b101111000000001001011111 e
b101000 x#
#498
0b
#499
b11111111010111111111000001101111 "
b101000 B
1b
b101111000000001001100000 e
b11000 x#
#500
0b
#501
b0 "
b11000 B
1b
b101111000000001001100001 e
b11100 x#
#502
0b
#503
b1011010001010000011 "
b11100 B
1b
b101111000000001001100010 e
b100000 x#
#504
0b
#505
b10101010010000000100011 "
b100000 B
1b
b101111000000001001100011 e
0'#
b100100 x#
#506
0b
#507
1b
b101111000000001001100100 e
1'#
#508
0b
#509
b10101010010100000100011 "
b100100 B
1b
b101111000000001001100101 e
b101000 x#
#510
0b
#511
b11111111010111111111000001101111 "
b101000 B
1b
b101111000000001001100110 e
b11000 x#
#512
0b
1:$
#513
b0 "
b11000 B
1b
b101111000000001001100111 e
b11100 x#
#514
0b
#515
b1011010001010000011 "
b11100 B
1b
b101111000000001001101000 e
b100000 x#
#516
0b
#517
b10101010010000000100011 "
b100000 B
1b
b101111000000001001101001 e
0'#
b100100 x#
#518
0b
#519
1b
b101111000000001001101010 e
1'#
#520
0b
#521
b10101010010100000100011 "
b100100 B
1b
b101111000000001001101011 e
b101000 x#
#522
0b
#523
b11111111010111111111000001101111 "
b101000 B
1b
b101111000000001001101100 e
b11000 x#
#524
0b
#525
b0 "
b11000 B
1b
b101111000000001001101101 e
b11100 x#
#526
0b
#527
b1011010001010000011 "
b11100 B
1b
b101111000000001001101110 e
b100000 x#
#528
0b
#529
b10101010010000000100011 "
b100000 B
1b
b101111000000001001101111 e
0'#
b100100 x#
#530
0b
#531
1b
b101111000000001001110000 e
1'#
#532
0b
#533
b10101010010100000100011 "
b100100 B
1b
b101111000000001001110001 e
b101000 x#
#534
0b
#535
b11111111010111111111000001101111 "
b101000 B
1b
b101111000000001001110010 e
b11000 x#
#536
0b
#537
b0 "
b11000 B
1b
b101111000000001001110011 e
b11100 x#
#538
0b
#539
b1011010001010000011 "
b11100 B
1b
b101111000000001001110100 e
b100000 x#
#540
0b
#541
b10101010010000000100011 "
b100000 B
1b
b101111000000001001110101 e
0'#
b100100 x#
#542
0b
#543
1b
b101111000000001001110110 e
1'#
#544
0b
#545
b10101010010100000100011 "
b100100 B
1b
b101111000000001001110111 e
b101000 x#
#546
0b
#547
b11111111010111111111000001101111 "
b101000 B
1b
b101111000000001001111000 e
b11000 x#
#548
0b
#549
b0 "
b11000 B
1b
b101111000000001001111001 e
b11100 x#
#550
0b
#551
b1011010001010000011 "
b11100 B
1b
b101111000000001001111010 e
b100000 x#
#552
0b
#553
b10101010010000000100011 "
b100000 B
1b
b101111000000001001111011 e
0'#
b100100 x#
#554
0b
#555
1b
b101111000000001001111100 e
1'#
#556
0b
#557
b10101010010100000100011 "
b100100 B
1b
b101111000000001001111101 e
b101000 x#
#558
0b
#559
b11111111010111111111000001101111 "
b101000 B
1b
b101111000000001001111110 e
b11000 x#
#560
0b
#561
b0 "
b11000 B
1b
b101111000000001001111111 e
b11100 x#
#562
0b
#563
b1011010001010000011 "
b11100 B
1b
b101111000000001010000000 e
b100000 x#
#564
0b
#565
b10101010010000000100011 "
b100000 B
1b
b101111000000001010000001 e
0'#
b100100 x#
#566
0b
#567
1b
b101111000000001010000010 e
1'#
#568
0b
#569
b10101010010100000100011 "
b100100 B
1b
b101111000000001010000011 e
b101000 x#
#570
0b
#571
b11111111010111111111000001101111 "
b101000 B
1b
b101111000000001010000100 e
b11000 x#
#572
0b
#573
b0 "
b11000 B
1b
b101111000000001010000101 e
b11100 x#
#574
0b
#575
b1011010001010000011 "
b11100 B
1b
b101111000000001010000110 e
b100000 x#
#576
0b
#577
b10101010010000000100011 "
b100000 B
1b
b101111000000001010000111 e
0'#
b100100 x#
#578
0b
#579
1b
b101111000000001010001000 e
1'#
#580
0b
#581
b10101010010100000100011 "
b100100 B
1b
b101111000000001010001001 e
b101000 x#
#582
0b
#583
b11111111010111111111000001101111 "
b101000 B
1b
b101111000000001010001010 e
b11000 x#
#584
0b
#585
b0 "
b11000 B
1b
b101111000000001010001011 e
b11100 x#
#586
0b
#587
b1011010001010000011 "
b11100 B
1b
b101111000000001010001100 e
b100000 x#
#588
0b
#589
b10101010010000000100011 "
b100000 B
1b
b101111000000001010001101 e
0'#
b100100 x#
#590
0b
#591
1b
b101111000000001010001110 e
1'#
#592
0b
#593
b10101010010100000100011 "
b100100 B
1b
b101111000000001010001111 e
b101000 x#
#594
0b
#595
b11111111010111111111000001101111 "
b101000 B
1b
b101111000000001010010000 e
b11000 x#
#596
0b
#597
b0 "
b11000 B
1b
b101111000000001010010001 e
b11100 x#
#598
0b
#599
b1011010001010000011 "
b11100 B
1b
b101111000000001010010010 e
b100000 x#
#600
0b
#601
b10101010010000000100011 "
b100000 B
1b
b101111000000001010010011 e
0'#
b100100 x#
#602
0b
#603
1b
b101111000000001010010100 e
1'#
#604
0b
#605
b10101010010100000100011 "
b100100 B
1b
b101111000000001010010101 e
b101000 x#
#606
0b
#607
b11111111010111111111000001101111 "
b101000 B
1b
b101111000000001010010110 e
b11000 x#
#608
0b
#609
b0 "
b11000 B
1b
b101111000000001010010111 e
b11100 x#
#610
0b
#611
b1011010001010000011 "
b11100 B
1b
b101111000000001010011000 e
b100000 x#
#612
0b
#613
b10101010010000000100011 "
b100000 B
1b
b101111000000001010011001 e
0'#
b100100 x#
#614
0b
#615
1b
b101111000000001010011010 e
1'#
#616
0b
#617
b10101010010100000100011 "
b100100 B
1b
b101111000000001010011011 e
b101000 x#
#618
0b
#619
b11111111010111111111000001101111 "
b101000 B
1b
b101111000000001010011100 e
b11000 x#
#620
0b
#621
b0 "
b11000 B
1b
b101111000000001010011101 e
b11100 x#
#622
0b
#623
b1011010001010000011 "
b11100 B
1b
b101111000000001010011110 e
b100000 x#
#624
0b
