RTL/CPUs/RISCVsinglecycleint/.Xil/Vivado-61620-QianPC/hw_ila_data_1/zip_work/waveform.vcd
$date
        2025-Jul-30 22:59:46
$end
$version
        Vivado v2024.2 (64-bit)
$end
$timescale
        1ps
$end
$scope module dut $end
$var reg 32 " sc_interrupt_sys/inst [31:0] $end
$var reg 32 B sc_interrupt_sys/pc [31:0] $end
$var reg 1 b sc_interrupt_sys/SI_ClkIn $end
$var reg 1 c sc_interrupt_sys/SI_Reset_N $end
$var reg 1 d sc_interrupt_sys/lock $end
$var reg 27 e sc_interrupt_sys/counter [26:0] $end
$var reg 16 "" sc_interrupt_sys/IO_Switch [15:0] $end
$var reg 16 2" sc_interrupt_sys/IO_LED [15:0] $end
$var reg 1 B" sc_interrupt_sys/dbg_imem_cs $end
$var reg 1 C" sc_interrupt_sys/dbg_imem_we $end
$var reg 32 D" sc_interrupt_sys/dbg_imem_addr [31:0] $end
$var reg 32 d" sc_interrupt_sys/dbg_imem_din [31:0] $end
$var reg 1 &# sc_interrupt_sys/dbg_dmem_cs $end
$var reg 1 '# sc_interrupt_sys/dbg_dmem_we $end
$var reg 32 (# sc_interrupt_sys/dbg_dmem_addr [31:0] $end
$var reg 32 H# sc_interrupt_sys/dbg_dmem_din [31:0] $end
$var reg 1 h# sc_interrupt_sys/dbg_halt_cpu $end
$var reg 8 i# sc_interrupt_sys/IO_7SEGEN_N [7:0] $end
$var reg 7 q# sc_interrupt_sys/IO_7SEG_N [6:0] $end
$var reg 1 x# sc_interrupt_sys/intr $end
$var reg 1 y# _TRIGGER $end
$var reg 1 z# _WINDOW $end
$var reg 1 {# _GAP $end
$upscope $end
$enddefinitions $end
#0
$dumpvars
b10101010010000000100011 "
b11111000 B
1b
1c
1d
b11001000111010111100111100 e
b0 ""
b0 2"
0B"
0C"
b0 D"
b0 d"
0&#
0'#
b0 (#
b0 H#
0h#
b11101111 i#
b1 q#
1x#
1y#
1z#
0{#
$end
#1
0b
#2
b10101010010100000100011 "
b11111100 B
1b
b11001000111010111100111101 e
#3
0b
#4
b110100001000000010001101110011 "
b1000 B
1b
b11001000111010111100111110 e
#5
0b
#6
b111100110111001110010011 "
b1100 B
1b
b11001000111010111100111111 e
#7
0b
#8
b10000000000000111000010011 "
b10000 B
1b
b11001000111010111101000000 e
#9
0b
#10
b1110000111000001110110011 "
b10100 B
1b
b11001000111010111101000001 e
#11
0b
#12
b111010001110000011 "
b11000 B
1b
b11001000111010111101000010 e
#13
0b
#14
b111000000001100111 "
b11100 B
1b
b11001000111010111101000011 e
#15
0b
#16
b10011 "
b100100 B
1b
b11001000111010111101000100 e
#17
0b
#18
b110000001000000000000001110011 "
b101000 B
1b
b11001000111010111101000101 e
#19
0b
#20
b10101010010100000100011 "
b11111100 B
1b
b11001000111010111101000110 e
#21
0b
#22
b110100001000000010001101110011 "
b1000 B
1b
b11001000111010111101000111 e
#23
0b
#24
b111100110111001110010011 "
b1100 B
1b
b11001000111010111101001000 e
#25
0b
#26
b10000000000000111000010011 "
b10000 B
1b
b11001000111010111101001001 e
#27
0b
#28
b1110000111000001110110011 "
b10100 B
1b
b11001000111010111101001010 e
#29
0b
#30
b111010001110000011 "
b11000 B
1b
b11001000111010111101001011 e
#31
0b
#32
b111000000001100111 "
b11100 B
1b
b11001000111010111101001100 e
#33
0b
#34
b10011 "
b100100 B
1b
b11001000111010111101001101 e
#35
0b
#36
b110000001000000000000001110011 "
b101000 B
1b
b11001000111010111101001110 e
#37
0b
#38
b10101010010100000100011 "
b11111100 B
1b
b11001000111010111101001111 e
#39
0b
#40
b110100001000000010001101110011 "
b1000 B
1b
b11001000111010111101010000 e
#41
0b
#42
b111100110111001110010011 "
b1100 B
1b
b11001000111010111101010001 e
#43
0b
#44
b10000000000000111000010011 "
b10000 B
1b
b11001000111010111101010010 e
#45
0b
#46
b1110000111000001110110011 "
b10100 B
1b
b11001000111010111101010011 e
#47
0b
#48
b111010001110000011 "
b11000 B
1b
b11001000111010111101010100 e
#49
0b
#50
b111000000001100111 "
b11100 B
1b
b11001000111010111101010101 e
#51
0b
#52
b10011 "
b100100 B
1b
b11001000111010111101010110 e
#53
0b
#54
b110000001000000000000001110011 "
b101000 B
1b
b11001000111010111101010111 e
#55
0b
#56
b10101010010100000100011 "
b11111100 B
1b
b11001000111010111101011000 e
#57
0b
#58
b110100001000000010001101110011 "
b1000 B
1b
b11001000111010111101011001 e
#59
0b
#60
b111100110111001110010011 "
b1100 B
1b
b11001000111010111101011010 e
#61
0b
#62
b10000000000000111000010011 "
b10000 B
1b
b11001000111010111101011011 e
#63
0b
#64
b1110000111000001110110011 "
b10100 B
1b
b11001000111010111101011100 e
#65
0b
#66
b111010001110000011 "
b11000 B
1b
b11001000111010111101011101 e
#67
0b
#68
b111000000001100111 "
b11100 B
1b
b11001000111010111101011110 e
#69
0b
#70
b10011 "
b100100 B
1b
b11001000111010111101011111 e
#71
0b
#72
b110000001000000000000001110011 "
b101000 B
1b
b11001000111010111101100000 e
#73
0b
#74
b10101010010100000100011 "
b11111100 B
1b
b11001000111010111101100001 e
#75
0b
#76
b110100001000000010001101110011 "
b1000 B
1b
b11001000111010111101100010 e
#77
0b
#78
b111100110111001110010011 "
b1100 B
1b
b11001000111010111101100011 e
#79
0b
#80
b10000000000000111000010011 "
b10000 B
1b
b11001000111010111101100100 e
#81
0b
#82
b1110000111000001110110011 "
b10100 B
1b
b11001000111010111101100101 e
#83
0b
#84
b111010001110000011 "
b11000 B
1b
b11001000111010111101100110 e
#85
0b
#86
b111000000001100111 "
b11100 B
1b
b11001000111010111101100111 e
#87
0b
#88
b10011 "
b100100 B
1b
b11001000111010111101101000 e
#89
0b
#90
b110000001000000000000001110011 "
b101000 B
1b
b11001000111010111101101001 e
#91
0b
#92
b10101010010100000100011 "
b11111100 B
1b
b11001000111010111101101010 e
#93
0b
#94
b110100001000000010001101110011 "
b1000 B
1b
b11001000111010111101101011 e
#95
0b
#96
b111100110111001110010011 "
b1100 B
1b
b11001000111010111101101100 e
#97
0b
#98
b10000000000000111000010011 "
b10000 B
1b
b11001000111010111101101101 e
#99
0b
#100
b1110000111000001110110011 "
b10100 B
1b
b11001000111010111101101110 e
#101
0b
#102
b111010001110000011 "
b11000 B
1b
b11001000111010111101101111 e
#103
0b
#104
b111000000001100111 "
b11100 B
1b
b11001000111010111101110000 e
#105
0b
#106
b10011 "
b100100 B
1b
b11001000111010111101110001 e
#107
0b
#108
b110000001000000000000001110011 "
b101000 B
1b
b11001000111010111101110010 e
#109
0b
#110
b10101010010100000100011 "
b11111100 B
1b
b11001000111010111101110011 e
#111
0b
#112
b110100001000000010001101110011 "
b1000 B
1b
b11001000111010111101110100 e
#113
0b
#114
b111100110111001110010011 "
b1100 B
1b
b11001000111010111101110101 e
#115
0b
#116
b10000000000000111000010011 "
b10000 B
1b
b11001000111010111101110110 e
#117
0b
#118
b1110000111000001110110011 "
b10100 B
1b
b11001000111010111101110111 e
#119
0b
#120
b111010001110000011 "
b11000 B
1b
b11001000111010111101111000 e
#121
0b
#122
b111000000001100111 "
b11100 B
1b
b11001000111010111101111001 e
#123
0b
#124
b10011 "
b100100 B
1b
b11001000111010111101111010 e
#125
0b
#126
b110000001000000000000001110011 "
b101000 B
1b
b11001000111010111101111011 e
#127
0b
#128
b10101010010100000100011 "
b11111100 B
1b
b11001000111010111101111100 e
#129
0b
#130
b110100001000000010001101110011 "
b1000 B
1b
b11001000111010111101111101 e
#131
0b
#132
b111100110111001110010011 "
b1100 B
1b
b11001000111010111101111110 e
#133
0b
#134
b10000000000000111000010011 "
b10000 B
1b
b11001000111010111101111111 e
#135
0b
#136
b1110000111000001110110011 "
b10100 B
1b
b11001000111010111110000000 e
#137
0b
#138
b111010001110000011 "
b11000 B
1b
b11001000111010111110000001 e
#139
0b
#140
b111000000001100111 "
b11100 B
1b
b11001000111010111110000010 e
#141
0b
#142
b10011 "
b100100 B
1b
b11001000111010111110000011 e
#143
0b
#144
b110000001000000000000001110011 "
b101000 B
1b
b11001000111010111110000100 e
#145
0b
#146
b10101010010100000100011 "
b11111100 B
1b
b11001000111010111110000101 e
#147
0b
#148
b110100001000000010001101110011 "
b1000 B
1b
b11001000111010111110000110 e
#149
0b
#150
b111100110111001110010011 "
b1100 B
1b
b11001000111010111110000111 e
#151
0b
#152
b10000000000000111000010011 "
b10000 B
1b
b11001000111010111110001000 e
#153
0b
#154
b1110000111000001110110011 "
b10100 B
1b
b11001000111010111110001001 e
#155
0b
#156
b111010001110000011 "
b11000 B
1b
b11001000111010111110001010 e
#157
0b
#158
b111000000001100111 "
b11100 B
1b
b11001000111010111110001011 e
#159
0b
#160
b10011 "
b100100 B
1b
b11001000111010111110001100 e
#161
0b
#162
b110000001000000000000001110011 "
b101000 B
1b
b11001000111010111110001101 e
#163
0b
#164
b10101010010100000100011 "
b11111100 B
1b
b11001000111010111110001110 e
#165
0b
#166
b110100001000000010001101110011 "
b1000 B
1b
b11001000111010111110001111 e
#167
0b
#168
b111100110111001110010011 "
b1100 B
1b
b11001000111010111110010000 e
#169
0b
#170
b10000000000000111000010011 "
b10000 B
1b
b11001000111010111110010001 e
#171
0b
#172
b1110000111000001110110011 "
b10100 B
1b
b11001000111010111110010010 e
#173
0b
#174
b111010001110000011 "
b11000 B
1b
b11001000111010111110010011 e
#175
0b
#176
b111000000001100111 "
b11100 B
1b
b11001000111010111110010100 e
#177
0b
#178
b10011 "
b100100 B
1b
b11001000111010111110010101 e
#179
0b
#180
b110000001000000000000001110011 "
b101000 B
1b
b11001000111010111110010110 e
#181
0b
#182
b10101010010100000100011 "
b11111100 B
1b
b11001000111010111110010111 e
#183
0b
#184
b110100001000000010001101110011 "
b1000 B
1b
b11001000111010111110011000 e
#185
0b
#186
b111100110111001110010011 "
b1100 B
1b
b11001000111010111110011001 e
#187
0b
#188
b10000000000000111000010011 "
b10000 B
1b
b11001000111010111110011010 e
#189
0b
#190
b1110000111000001110110011 "
b10100 B
1b
b11001000111010111110011011 e
#191
0b
#192
b111010001110000011 "
b11000 B
1b
b11001000111010111110011100 e
#193
0b
#194
b111000000001100111 "
b11100 B
1b
b11001000111010111110011101 e
#195
0b
#196
b10011 "
b100100 B
1b
b11001000111010111110011110 e
#197
0b
#198
b110000001000000000000001110011 "
b101000 B
1b
b11001000111010111110011111 e
#199
0b
#200
b10101010010100000100011 "
b11111100 B
1b
b11001000111010111110100000 e
#201
0b
#202
b110100001000000010001101110011 "
b1000 B
1b
b11001000111010111110100001 e
#203
0b
#204
b111100110111001110010011 "
b1100 B
1b
b11001000111010111110100010 e
#205
0b
#206
b10000000000000111000010011 "
b10000 B
1b
b11001000111010111110100011 e
#207
0b
#208
b1110000111000001110110011 "
b10100 B
1b
b11001000111010111110100100 e
#209
0b
#210
b111010001110000011 "
b11000 B
1b
b11001000111010111110100101 e
#211
0b
#212
b111000000001100111 "
b11100 B
1b
b11001000111010111110100110 e
#213
0b
#214
b10011 "
b100100 B
1b
b11001000111010111110100111 e
#215
0b
#216
b110000001000000000000001110011 "
b101000 B
1b
b11001000111010111110101000 e
#217
0b
#218
b10101010010100000100011 "
b11111100 B
1b
b11001000111010111110101001 e
#219
0b
#220
b110100001000000010001101110011 "
b1000 B
1b
b11001000111010111110101010 e
#221
0b
#222
b111100110111001110010011 "
b1100 B
1b
b11001000111010111110101011 e
#223
0b
#224
b10000000000000111000010011 "
b10000 B
1b
b11001000111010111110101100 e
#225
0b
#226
b1110000111000001110110011 "
b10100 B
1b
b11001000111010111110101101 e
#227
0b
#228
b111010001110000011 "
b11000 B
1b
b11001000111010111110101110 e
#229
0b
#230
b111000000001100111 "
b11100 B
1b
b11001000111010111110101111 e
#231
0b
#232
b10011 "
b100100 B
1b
b11001000111010111110110000 e
#233
0b
#234
b110000001000000000000001110011 "
b101000 B
1b
b11001000111010111110110001 e
#235
0b
#236
b10101010010100000100011 "
b11111100 B
1b
b11001000111010111110110010 e
#237
0b
#238
b110100001000000010001101110011 "
b1000 B
1b
b11001000111010111110110011 e
#239
0b
#240
b111100110111001110010011 "
b1100 B
1b
b11001000111010111110110100 e
#241
0b
#242
b10000000000000111000010011 "
b10000 B
1b
b11001000111010111110110101 e
#243
0b
#244
b1110000111000001110110011 "
b10100 B
1b
b11001000111010111110110110 e
#245
0b
#246
b111010001110000011 "
b11000 B
1b
b11001000111010111110110111 e
#247
0b
#248
b111000000001100111 "
b11100 B
1b
b11001000111010111110111000 e
#249
0b
#250
b10011 "
b100100 B
1b
b11001000111010111110111001 e
#251
0b
#252
b110000001000000000000001110011 "
b101000 B
1b
b11001000111010111110111010 e
#253
0b
#254
b10101010010100000100011 "
b11111100 B
1b
b11001000111010111110111011 e
#255
0b
#256
b110100001000000010001101110011 "
b1000 B
1b
b11001000111010111110111100 e
#257
0b
#258
b111100110111001110010011 "
b1100 B
1b
b11001000111010111110111101 e
#259
0b
#260
b10000000000000111000010011 "
b10000 B
1b
b11001000111010111110111110 e
#261
0b
#262
b1110000111000001110110011 "
b10100 B
1b
b11001000111010111110111111 e
#263
0b
#264
b111010001110000011 "
b11000 B
1b
b11001000111010111111000000 e
#265
0b
#266
b111000000001100111 "
b11100 B
1b
b11001000111010111111000001 e
#267
0b
#268
b10011 "
b100100 B
1b
b11001000111010111111000010 e
#269
0b
#270
b110000001000000000000001110011 "
b101000 B
1b
b11001000111010111111000011 e
#271
0b
#272
b10101010010100000100011 "
b11111100 B
1b
b11001000111010111111000100 e
#273
0b
#274
b110100001000000010001101110011 "
b1000 B
1b
b11001000111010111111000101 e
#275
0b
#276
b111100110111001110010011 "
b1100 B
1b
b11001000111010111111000110 e
#277
0b
#278
b10000000000000111000010011 "
b10000 B
1b
b11001000111010111111000111 e
#279
0b
#280
b1110000111000001110110011 "
b10100 B
1b
b11001000111010111111001000 e
#281
0b
#282
b111010001110000011 "
b11000 B
1b
b11001000111010111111001001 e
#283
0b
#284
b111000000001100111 "
b11100 B
1b
b11001000111010111111001010 e
#285
0b
#286
b10011 "
b100100 B
1b
b11001000111010111111001011 e
#287
0b
#288
b110000001000000000000001110011 "
b101000 B
1b
b11001000111010111111001100 e
#289
0b
#290
b10101010010100000100011 "
b11111100 B
1b
b11001000111010111111001101 e
#291
0b
#292
b110100001000000010001101110011 "
b1000 B
1b
b11001000111010111111001110 e
#293
0b
#294
b111100110111001110010011 "
b1100 B
1b
b11001000111010111111001111 e
#295
0b
#296
b10000000000000111000010011 "
b10000 B
1b
b11001000111010111111010000 e
#297
0b
#298
b1110000111000001110110011 "
b10100 B
1b
b11001000111010111111010001 e
#299
0b
#300
b111010001110000011 "
b11000 B
1b
b11001000111010111111010010 e
#301
0b
#302
b111000000001100111 "
b11100 B
1b
b11001000111010111111010011 e
#303
0b
#304
b10011 "
b100100 B
1b
b11001000111010111111010100 e
#305
0b
#306
b110000001000000000000001110011 "
b101000 B
1b
b11001000111010111111010101 e
#307
0b
#308
b10101010010100000100011 "
b11111100 B
1b
b11001000111010111111010110 e
#309
0b
#310
b110100001000000010001101110011 "
b1000 B
1b
b11001000111010111111010111 e
#311
0b
#312
b111100110111001110010011 "
b1100 B
1b
b11001000111010111111011000 e
#313
0b
#314
b10000000000000111000010011 "
b10000 B
1b
b11001000111010111111011001 e
#315
0b
#316
b1110000111000001110110011 "
b10100 B
1b
b11001000111010111111011010 e
#317
0b
#318
b111010001110000011 "
b11000 B
1b
b11001000111010111111011011 e
#319
0b
#320
b111000000001100111 "
b11100 B
1b
b11001000111010111111011100 e
#321
0b
#322
b10011 "
b100100 B
1b
b11001000111010111111011101 e
#323
0b
#324
b110000001000000000000001110011 "
b101000 B
1b
b11001000111010111111011110 e
#325
0b
#326
b10101010010100000100011 "
b11111100 B
1b
b11001000111010111111011111 e
#327
0b
#328
b110100001000000010001101110011 "
b1000 B
1b
b11001000111010111111100000 e
#329
0b
#330
b111100110111001110010011 "
b1100 B
1b
b11001000111010111111100001 e
#331
0b
#332
b10000000000000111000010011 "
b10000 B
1b
b11001000111010111111100010 e
#333
0b
#334
b1110000111000001110110011 "
b10100 B
1b
b11001000111010111111100011 e
#335
0b
#336
b111010001110000011 "
b11000 B
1b
b11001000111010111111100100 e
#337
0b
#338
b111000000001100111 "
b11100 B
1b
b11001000111010111111100101 e
#339
0b
#340
b10011 "
b100100 B
1b
b11001000111010111111100110 e
#341
0b
#342
b110000001000000000000001110011 "
b101000 B
1b
b11001000111010111111100111 e
#343
0b
#344
b10101010010100000100011 "
b11111100 B
1b
b11001000111010111111101000 e
#345
0b
#346
b110100001000000010001101110011 "
b1000 B
1b
b11001000111010111111101001 e
#347
0b
#348
b111100110111001110010011 "
b1100 B
1b
b11001000111010111111101010 e
#349
0b
#350
b10000000000000111000010011 "
b10000 B
1b
b11001000111010111111101011 e
#351
0b
#352
b1110000111000001110110011 "
b10100 B
1b
b11001000111010111111101100 e
#353
0b
#354
b111010001110000011 "
b11000 B
1b
b11001000111010111111101101 e
#355
0b
#356
b111000000001100111 "
b11100 B
1b
b11001000111010111111101110 e
#357
0b
#358
b10011 "
b100100 B
1b
b11001000111010111111101111 e
#359
0b
#360
b110000001000000000000001110011 "
b101000 B
1b
b11001000111010111111110000 e
#361
0b
#362
b10101010010100000100011 "
b11111100 B
1b
b11001000111010111111110001 e
#363
0b
#364
b110100001000000010001101110011 "
b1000 B
1b
b11001000111010111111110010 e
#365
0b
#366
b111100110111001110010011 "
b1100 B
1b
b11001000111010111111110011 e
#367
0b
#368
b10000000000000111000010011 "
b10000 B
1b
b11001000111010111111110100 e
#369
0b
#370
b1110000111000001110110011 "
b10100 B
1b
b11001000111010111111110101 e
#371
0b
#372
b111010001110000011 "
b11000 B
1b
b11001000111010111111110110 e
#373
0b
#374
b111000000001100111 "
b11100 B
1b
b11001000111010111111110111 e
#375
0b
#376
b10011 "
b100100 B
1b
b11001000111010111111111000 e
#377
0b
#378
b110000001000000000000001110011 "
b101000 B
1b
b11001000111010111111111001 e
#379
0b
#380
b10101010010100000100011 "
b11111100 B
1b
b11001000111010111111111010 e
#381
0b
#382
b110100001000000010001101110011 "
b1000 B
1b
b11001000111010111111111011 e
#383
0b
#384
b111100110111001110010011 "
b1100 B
1b
b11001000111010111111111100 e
#385
0b
#386
b10000000000000111000010011 "
b10000 B
1b
b11001000111010111111111101 e
#387
0b
#388
b1110000111000001110110011 "
b10100 B
1b
b11001000111010111111111110 e
#389
0b
#390
b111010001110000011 "
b11000 B
1b
b11001000111010111111111111 e
#391
0b
#392
b111000000001100111 "
b11100 B
1b
b11001000111011000000000000 e
#393
0b
#394
b10011 "
b100100 B
1b
b11001000111011000000000001 e
#395
0b
#396
b110000001000000000000001110011 "
b101000 B
1b
b11001000111011000000000010 e
#397
0b
#398
b10101010010100000100011 "
b11111100 B
1b
b11001000111011000000000011 e
#399
0b
#400
b110100001000000010001101110011 "
b1000 B
1b
b11001000111011000000000100 e
#401
0b
#402
b111100110111001110010011 "
b1100 B
1b
b11001000111011000000000101 e
#403
0b
#404
b10000000000000111000010011 "
b10000 B
1b
b11001000111011000000000110 e
#405
0b
#406
b1110000111000001110110011 "
b10100 B
1b
b11001000111011000000000111 e
#407
0b
#408
b111010001110000011 "
b11000 B
1b
b11001000111011000000001000 e
#409
0b
#410
b111000000001100111 "
b11100 B
1b
b11001000111011000000001001 e
#411
0b
#412
b10011 "
b100100 B
1b
b11001000111011000000001010 e
#413
0b
#414
b110000001000000000000001110011 "
b101000 B
1b
b11001000111011000000001011 e
#415
0b
#416
b10101010010100000100011 "
b11111100 B
1b
b11001000111011000000001100 e
#417
0b
#418
b110100001000000010001101110011 "
b1000 B
1b
b11001000111011000000001101 e
#419
0b
#420
b111100110111001110010011 "
b1100 B
1b
b11001000111011000000001110 e
#421
0b
#422
b10000000000000111000010011 "
b10000 B
1b
b11001000111011000000001111 e
#423
0b
#424
b1110000111000001110110011 "
b10100 B
1b
b11001000111011000000010000 e
#425
0b
#426
b111010001110000011 "
b11000 B
1b
b11001000111011000000010001 e
#427
0b
#428
b111000000001100111 "
b11100 B
1b
b11001000111011000000010010 e
#429
0b
#430
b10011 "
b100100 B
1b
b11001000111011000000010011 e
#431
0b
#432
b110000001000000000000001110011 "
b101000 B
1b
b11001000111011000000010100 e
#433
0b
#434
b10101010010100000100011 "
b11111100 B
1b
b11001000111011000000010101 e
#435
0b
#436
b110100001000000010001101110011 "
b1000 B
1b
b11001000111011000000010110 e
#437
0b
#438
b111100110111001110010011 "
b1100 B
1b
b11001000111011000000010111 e
#439
0b
#440
b10000000000000111000010011 "
b10000 B
1b
b11001000111011000000011000 e
#441
0b
#442
b1110000111000001110110011 "
b10100 B
1b
b11001000111011000000011001 e
#443
0b
#444
b111010001110000011 "
b11000 B
1b
b11001000111011000000011010 e
#445
0b
#446
b111000000001100111 "
b11100 B
1b
b11001000111011000000011011 e
#447
0b
#448
b10011 "
b100100 B
1b
b11001000111011000000011100 e
#449
0b
#450
b110000001000000000000001110011 "
b101000 B
1b
b11001000111011000000011101 e
#451
0b
#452
b10101010010100000100011 "
b11111100 B
1b
b11001000111011000000011110 e
#453
0b
#454
b110100001000000010001101110011 "
b1000 B
1b
b11001000111011000000011111 e
#455
0b
#456
b111100110111001110010011 "
b1100 B
1b
b11001000111011000000100000 e
#457
0b
#458
b10000000000000111000010011 "
b10000 B
1b
b11001000111011000000100001 e
#459
0b
#460
b1110000111000001110110011 "
b10100 B
1b
b11001000111011000000100010 e
#461
0b
#462
b111010001110000011 "
b11000 B
1b
b11001000111011000000100011 e
#463
0b
#464
b111000000001100111 "
b11100 B
1b
b11001000111011000000100100 e
#465
0b
#466
b10011 "
b100100 B
1b
b11001000111011000000100101 e
#467
0b
#468
b110000001000000000000001110011 "
b101000 B
1b
b11001000111011000000100110 e
#469
0b
#470
b10101010010100000100011 "
b11111100 B
1b
b11001000111011000000100111 e
#471
0b
#472
b110100001000000010001101110011 "
b1000 B
1b
b11001000111011000000101000 e
#473
0b
#474
b111100110111001110010011 "
b1100 B
1b
b11001000111011000000101001 e
#475
0b
#476
b10000000000000111000010011 "
b10000 B
1b
b11001000111011000000101010 e
#477
0b
#478
b1110000111000001110110011 "
b10100 B
1b
b11001000111011000000101011 e
#479
0b
#480
b111010001110000011 "
b11000 B
1b
b11001000111011000000101100 e
#481
0b
#482
b111000000001100111 "
b11100 B
1b
b11001000111011000000101101 e
#483
0b
#484
b10011 "
b100100 B
1b
b11001000111011000000101110 e
#485
0b
#486
b110000001000000000000001110011 "
b101000 B
1b
b11001000111011000000101111 e
#487
0b
#488
b10101010010100000100011 "
b11111100 B
1b
b11001000111011000000110000 e
#489
0b
#490
b110100001000000010001101110011 "
b1000 B
1b
b11001000111011000000110001 e
#491
0b
#492
b111100110111001110010011 "
b1100 B
1b
b11001000111011000000110010 e
#493
0b
#494
b10000000000000111000010011 "
b10000 B
1b
b11001000111011000000110011 e
#495
0b
#496
b1110000111000001110110011 "
b10100 B
1b
b11001000111011000000110100 e
#497
0b
#498
b111010001110000011 "
b11000 B
1b
b11001000111011000000110101 e
#499
0b
#500
b111000000001100111 "
b11100 B
1b
b11001000111011000000110110 e
#501
0b
#502
b10011 "
b100100 B
1b
b11001000111011000000110111 e
#503
0b
#504
b110000001000000000000001110011 "
b101000 B
1b
b11001000111011000000111000 e
#505
0b
#506
b10101010010100000100011 "
b11111100 B
1b
b11001000111011000000111001 e
#507
0b
#508
b110100001000000010001101110011 "
b1000 B
1b
b11001000111011000000111010 e
#509
0b
#510
b111100110111001110010011 "
b1100 B
1b
b11001000111011000000111011 e
#511
0b
#512
b10000000000000111000010011 "
b10000 B
1b
b11001000111011000000111100 e
#513
0b
#514
b1110000111000001110110011 "
b10100 B
1b
b11001000111011000000111101 e
#515
0b
#516
b111010001110000011 "
b11000 B
1b
b11001000111011000000111110 e
#517
0b
#518
b111000000001100111 "
b11100 B
1b
b11001000111011000000111111 e
#519
0b
#520
b10011 "
b100100 B
1b
b11001000111011000001000000 e
#521
0b
#522
b110000001000000000000001110011 "
b101000 B
1b
b11001000111011000001000001 e
#523
0b
#524
b10101010010100000100011 "
b11111100 B
1b
b11001000111011000001000010 e
#525
0b
#526
b110100001000000010001101110011 "
b1000 B
1b
b11001000111011000001000011 e
#527
0b
#528
b111100110111001110010011 "
b1100 B
1b
b11001000111011000001000100 e
#529
0b
#530
b10000000000000111000010011 "
b10000 B
1b
b11001000111011000001000101 e
#531
0b
#532
b1110000111000001110110011 "
b10100 B
1b
b11001000111011000001000110 e
#533
0b
#534
b111010001110000011 "
b11000 B
1b
b11001000111011000001000111 e
#535
0b
#536
b111000000001100111 "
b11100 B
1b
b11001000111011000001001000 e
#537
0b
#538
b10011 "
b100100 B
1b
b11001000111011000001001001 e
#539
0b
#540
b110000001000000000000001110011 "
b101000 B
1b
b11001000111011000001001010 e
#541
0b
#542
b10101010010100000100011 "
b11111100 B
1b
b11001000111011000001001011 e
#543
0b
#544
b110100001000000010001101110011 "
b1000 B
1b
b11001000111011000001001100 e
#545
0b
#546
b111100110111001110010011 "
b1100 B
1b
b11001000111011000001001101 e
#547
0b
#548
b10000000000000111000010011 "
b10000 B
1b
b11001000111011000001001110 e
#549
0b
#550
b1110000111000001110110011 "
b10100 B
1b
b11001000111011000001001111 e
#551
0b
#552
b111010001110000011 "
b11000 B
1b
b11001000111011000001010000 e
#553
0b
#554
b111000000001100111 "
b11100 B
1b
b11001000111011000001010001 e
#555
0b
#556
b10011 "
b100100 B
1b
b11001000111011000001010010 e
#557
0b
#558
b110000001000000000000001110011 "
b101000 B
1b
b11001000111011000001010011 e
#559
0b
#560
b10101010010100000100011 "
b11111100 B
1b
b11001000111011000001010100 e
#561
0b
#562
b110100001000000010001101110011 "
b1000 B
1b
b11001000111011000001010101 e
#563
0b
#564
b111100110111001110010011 "
b1100 B
1b
b11001000111011000001010110 e
#565
0b
#566
b10000000000000111000010011 "
b10000 B
1b
b11001000111011000001010111 e
#567
0b
#568
b1110000111000001110110011 "
b10100 B
1b
b11001000111011000001011000 e
#569
0b
#570
b111010001110000011 "
b11000 B
1b
b11001000111011000001011001 e
#571
0b
#572
b111000000001100111 "
b11100 B
1b
b11001000111011000001011010 e
#573
0b
#574
b10011 "
b100100 B
1b
b11001000111011000001011011 e
#575
0b
#576
b110000001000000000000001110011 "
b101000 B
1b
b11001000111011000001011100 e
#577
0b
#578
b10101010010100000100011 "
b11111100 B
1b
b11001000111011000001011101 e
#579
0b
#580
b110100001000000010001101110011 "
b1000 B
1b
b11001000111011000001011110 e
#581
0b
#582
b111100110111001110010011 "
b1100 B
1b
b11001000111011000001011111 e
#583
0b
#584
b10000000000000111000010011 "
b10000 B
1b
b11001000111011000001100000 e
#585
0b
#586
b1110000111000001110110011 "
b10100 B
1b
b11001000111011000001100001 e
#587
0b
#588
b111010001110000011 "
b11000 B
1b
b11001000111011000001100010 e
#589
0b
#590
b111000000001100111 "
b11100 B
1b
b11001000111011000001100011 e
#591
0b
#592
b10011 "
b100100 B
1b
b11001000111011000001100100 e
#593
0b
#594
b110000001000000000000001110011 "
b101000 B
1b
b11001000111011000001100101 e
#595
0b
#596
b10101010010100000100011 "
b11111100 B
1b
b11001000111011000001100110 e
#597
0b
#598
b110100001000000010001101110011 "
b1000 B
1b
b11001000111011000001100111 e
#599
0b
#600
b111100110111001110010011 "
b1100 B
1b
b11001000111011000001101000 e
#601
0b
#602
b10000000000000111000010011 "
b10000 B
1b
b11001000111011000001101001 e
#603
0b
#604
b1110000111000001110110011 "
b10100 B
1b
b11001000111011000001101010 e
#605
0b
#606
b111010001110000011 "
b11000 B
1b
b11001000111011000001101011 e
#607
0b
#608
b111000000001100111 "
b11100 B
1b
b11001000111011000001101100 e
#609
0b
#610
b10011 "
b100100 B
1b
b11001000111011000001101101 e
#611
0b
#612
b110000001000000000000001110011 "
b101000 B
1b
b11001000111011000001101110 e
#613
0b
#614
b10101010010100000100011 "
b11111100 B
1b
b11001000111011000001101111 e
#615
0b
#616
b110100001000000010001101110011 "
b1000 B
1b
b11001000111011000001110000 e
#617
0b
#618
b111100110111001110010011 "
b1100 B
1b
b11001000111011000001110001 e
#619
0b
#620
b10000000000000111000010011 "
b10000 B
1b
b11001000111011000001110010 e
#621
0b
#622
b1110000111000001110110011 "
b10100 B
1b
b11001000111011000001110011 e
#623
0b
#624
b111010001110000011 "
b11000 B
1b
b11001000111011000001110100 e
#625
0b
#626
b111000000001100111 "
b11100 B
1b
b11001000111011000001110101 e
#627
0b
#628
b10011 "
b100100 B
1b
b11001000111011000001110110 e
#629
0b
#630
b110000001000000000000001110011 "
b101000 B
1b
b11001000111011000001110111 e
#631
0b
#632
b10101010010100000100011 "
b11111100 B
1b
b11001000111011000001111000 e
#633
0b
#634
b110100001000000010001101110011 "
b1000 B
1b
b11001000111011000001111001 e
#635
0b
#636
b111100110111001110010011 "
b1100 B
1b
b11001000111011000001111010 e
#637
0b
#638
b10000000000000111000010011 "
b10000 B
1b
b11001000111011000001111011 e
#639
0b
#640
b1110000111000001110110011 "
b10100 B
1b
b11001000111011000001111100 e
#641
0b
#642
b111010001110000011 "
b11000 B
1b
b11001000111011000001111101 e
#643
0b
#644
b111000000001100111 "
b11100 B
1b
b11001000111011000001111110 e
#645
0b
#646
b10011 "
b100100 B
1b
b11001000111011000001111111 e
#647
0b
#648
b110000001000000000000001110011 "
b101000 B
1b
b11001000111011000010000000 e
#649
0b
#650
b10101010010100000100011 "
b11111100 B
1b
b11001000111011000010000001 e
#651
0b
#652
b110100001000000010001101110011 "
b1000 B
1b
b11001000111011000010000010 e
#653
0b
#654
b111100110111001110010011 "
b1100 B
1b
b11001000111011000010000011 e
#655
0b
#656
b10000000000000111000010011 "
b10000 B
1b
b11001000111011000010000100 e
#657
0b
